simulation/qsim/Lab5.msim.vcd
$comment
	File created using the following command:
		vcd file Lab5.msim.vcd -direction
$end
$date
	Wed Oct  9 13:21:42 2024
$end
$version
	ModelSim Version 10.3d
$end
$timescale
	1ps
$end

$scope module game_vlg_vec_tst $end
$var reg 1 ! E $end
$var reg 1 " N $end
$var reg 1 # S $end
$var reg 1 $ W $end
$var reg 1 % clk $end
$var reg 1 & reset $end
$var wire 1 ' death $end
$var wire 1 ( s0 $end
$var wire 1 ) s1 $end
$var wire 1 * s2 $end
$var wire 1 + s3 $end
$var wire 1 , s4 $end
$var wire 1 - s5 $end
$var wire 1 . s6 $end
$var wire 1 / sw $end
$var wire 1 0 v $end
$var wire 1 1 win $end
$var wire 1 2 sampler $end

$scope module i1 $end
$var wire 1 3 gnd $end
$var wire 1 4 vcc $end
$var wire 1 5 unknown $end
$var tri1 1 6 devclrn $end
$var tri1 1 7 devpor $end
$var tri1 1 8 devoe $end
$var wire 1 9 s6~output_o $end
$var wire 1 : s5~output_o $end
$var wire 1 ; s4~output_o $end
$var wire 1 < s3~output_o $end
$var wire 1 = s2~output_o $end
$var wire 1 > s1~output_o $end
$var wire 1 ? s0~output_o $end
$var wire 1 @ v~output_o $end
$var wire 1 A win~output_o $end
$var wire 1 B death~output_o $end
$var wire 1 C sw~output_o $end
$var wire 1 D clk~input_o $end
$var wire 1 E clk~inputclkctrl_outclk $end
$var wire 1 F reset~input_o $end
$var wire 1 G N~input_o $end
$var wire 1 H E~input_o $end
$var wire 1 I W~input_o $end
$var wire 1 J S~input_o $end
$var wire 1 K roomFSM|s1Next~1_combout $end
$var wire 1 L roomFSM|dff_1|q~q $end
$var wire 1 M roomFSM|s0Next~1_combout $end
$var wire 1 N roomFSM|s0Next~2_combout $end
$var wire 1 O roomFSM|dff_0|q~q $end
$var wire 1 P roomFSM|s0Next~0_combout $end
$var wire 1 Q roomFSM|s0Next~3_combout $end
$var wire 1 R roomFSM|s1Next~2_combout $end
$var wire 1 S roomFSM|s1Next~3_combout $end
$var wire 1 T roomFSM|s1Next~4_combout $end
$var wire 1 U roomFSM|dff_3|q~q $end
$var wire 1 V roomFSM|s3Next~1_combout $end
$var wire 1 W roomFSM|s3Next~2_combout $end
$var wire 1 X roomFSM|s2Next~1_combout $end
$var wire 1 Y roomFSM|s2Next~2_combout $end
$var wire 1 Z roomFSM|s4Next~2_combout $end
$var wire 1 [ roomFSM|s2Next~3_combout $end
$var wire 1 \ roomFSM|s2Next~4_combout $end
$var wire 1 ] roomFSM|dff_2|q~q $end
$var wire 1 ^ roomFSM|s4Next~0_combout $end
$var wire 1 _ roomFSM|s4Next~1_combout $end
$var wire 1 ` roomFSM|dff_4|q~q $end
$var wire 1 a swordFSM|s0Next~0_combout $end
$var wire 1 b swordFSM|dff_0|q~q $end
$var wire 1 c swordFSM|dff_1|q~q $end
$var wire 1 d swordFSM|s1Next~0_combout $end
$var wire 1 e roomFSM|s6Next~0_combout $end
$var wire 1 f roomFSM|dff_6|q~q $end
$var wire 1 g roomFSM|s5Next~0_combout $end
$var wire 1 h roomFSM|dff_5|q~q $end
$upscope $end
$upscope $end
$enddefinitions $end
#0
$dumpvars
0!
0"
0#
0$
0%
1&
0'
0(
0)
0*
0+
0,
0-
0.
0/
00
01
x2
03
14
x5
16
17
18
09
0:
0;
0<
0=
0>
0?
0@
0A
0B
0C
0D
0E
1F
0G
0H
0I
0J
0K
0L
0M
1N
0O
0P
0Q
0R
0S
0T
0U
0V
0W
0X
0Y
0Z
0[
0\
0]
0^
0_
0`
1a
0b
0c
0d
0e
0f
0g
0h
$end
#5000
1%
1D
02
1E
1b
1O
1?
1P
1(
1Q
#10000
0&
0%
0F
0D
12
0E
#15000
1%
1D
02
1E
#20000
1!
0%
1H
0D
12
0E
1S
1T
0P
1K
0Q
0N
#25000
1%
1D
02
1E
0O
1L
1>
0?
0S
1)
0(
#30000
0%
0D
12
0E
#35000
1%
1D
02
1E
#40000
0%
0D
12
0E
#45000
1%
1D
02
1E
#50000
0!
0%
0H
0D
12
0E
#55000
1%
1D
02
1E
#60000
0%
0D
12
0E
#65000
1%
1D
02
1E
#70000
1#
0%
1J
0D
12
0E
1Y
1[
1\
0T
0K
#75000
1%
1D
02
1E
1]
0L
0>
1=
1^
1X
1R
0[
0)
1*
1[
0\
1\
#80000
0%
0D
12
0E
#85000
1%
1D
02
1E
#90000
1"
1&
0#
0%
1G
1F
0J
0D
12
0E
0^
1S
0\
0Y
1N
1T
0X
0[
#95000
1%
1D
02
1E
0]
1O
1?
0=
0R
1P
1(
0*
0S
1Q
0T
#100000
0"
0&
1#
0%
0G
0F
1J
0D
12
0E
1Y
#105000
1%
1D
02
1E
#110000
1!
0%
1H
0D
12
0E
1S
1T
0P
1K
0Q
0N
#115000
1%
1D
02
1E
0O
1L
1>
0?
0S
1[
1)
0(
1\
0T
0K
#120000
0#
0!
0%
0J
0H
0D
12
0E
0Y
0[
0\
1T
1K
#125000
1%
1D
02
1E
#130000
1#
0%
1J
0D
12
0E
1Y
1[
1\
0T
0K
#135000
1%
1D
02
1E
1]
0L
0>
1=
1^
1X
1R
0[
0)
1*
1[
0\
1\
#140000
1$
0#
0%
1I
0J
0D
12
0E
0Y
1W
0R
1M
0X
0[
0\
#145000
1%
1D
02
1E
0]
1U
1<
1C
0=
0^
1V
1+
1/
0*
1d
0a
1@
10
#150000
1!
0$
0%
1H
0I
0D
12
0E
1\
0V
0M
0W
#155000
1%
1D
02
1E
1c
0b
1]
0U
0<
0C
1=
1^
1Z
1X
1R
0\
0+
0/
1*
1[
1\
#160000
1#
0%
1J
0D
12
0E
1Y
1_
0[
0\
#165000
1%
1D
02
1E
1`
0]
0=
1;
0^
0Z
0X
0R
0*
1,
1e
0_
#170000
0!
0#
0%
0H
0J
0D
12
0E
0Y
#175000
1%
1D
02
1E
1f
0`
0;
19
1A
0,
1.
11
#180000
1&
0%
1F
0D
12
0E
0e
0d
1a
1N
0@
00
#185000
1%
1D
02
1E
0c
1b
0f
1O
1?
09
0A
1P
1(
0.
01
1Q
#190000
1!
0&
0%
1H
0F
0D
12
0E
1S
1T
0P
1K
0Q
0N
#195000
1%
1D
02
1E
0O
1L
1>
0?
0S
1)
0(
#200000
1#
0!
0%
1J
0H
0D
12
0E
1Y
1[
1\
0T
0K
#205000
1%
1D
02
1E
1]
0L
0>
1=
1^
1X
1R
0[
0)
1*
1[
0\
1\
#210000
1!
0%
1H
0D
12
0E
1Z
1_
0[
0\
#215000
1%
1D
02
1E
1`
0]
0=
1;
0^
0Z
0X
0R
0*
1,
1g
0_
#220000
0#
0!
0%
0J
0H
0D
12
0E
0Y
#225000
1%
1D
02
1E
1h
0`
0;
1:
1B
0,
1-
1'
#230000
0%
0D
12
0E
#235000
1%
1D
02
1E
#240000
0%
0D
12
0E
#245000
1%
1D
02
1E
#250000
0%
0D
12
0E
#255000
1%
1D
02
1E
#260000
0%
0D
12
0E
#265000
1%
1D
02
1E
#270000
0%
0D
12
0E
#275000
1%
1D
02
1E
#280000
0%
0D
12
0E
#285000
1%
1D
02
1E
#290000
0%
0D
12
0E
#295000
1%
1D
02
1E
#300000
0%
0D
12
0E
#305000
1%
1D
02
1E
#310000
0%
0D
12
0E
#315000
1%
1D
02
1E
#320000
0%
0D
12
0E
#325000
1%
1D
02
1E
#330000
0%
0D
12
0E
#335000
1%
1D
02
1E
#340000
0%
0D
12
0E
#345000
1%
1D
02
1E
#350000
0%
0D
12
0E
#355000
1%
1D
02
1E
#360000
0%
0D
12
0E
#365000
1%
1D
02
1E
#370000
0%
0D
12
0E
#375000
1%
1D
02
1E
#380000
0%
0D
12
0E
#385000
1%
1D
02
1E
#390000
0%
0D
12
0E
#395000
1%
1D
02
1E
#400000
0%
0D
12
0E
#405000
1%
1D
02
1E
#410000
0%
0D
12
0E
#415000
1%
1D
02
1E
#420000
0%
0D
12
0E
#425000
1%
1D
02
1E
#430000
0%
0D
12
0E
#435000
1%
1D
02
1E
#440000
0%
0D
12
0E
#445000
1%
1D
02
1E
#450000
0%
0D
12
0E
#455000
1%
1D
02
1E
#460000
0%
0D
12
0E
#465000
1%
1D
02
1E
#470000
0%
0D
12
0E
#475000
1%
1D
02
1E
#480000
0%
0D
12
0E
#485000
1%
1D
02
1E
#490000
0%
0D
12
0E
#495000
1%
1D
02
1E
#500000
0%
0D
12
0E
#505000
1%
1D
02
1E
#510000
0%
0D
12
0E
#515000
1%
1D
02
1E
#520000
0%
0D
12
0E
#525000
1%
1D
02
1E
#530000
0%
0D
12
0E
#535000
1%
1D
02
1E
#540000
0%
0D
12
0E
#545000
1%
1D
02
1E
#550000
0%
0D
12
0E
#555000
1%
1D
02
1E
#560000
0%
0D
12
0E
#565000
1%
1D
02
1E
#570000
0%
0D
12
0E
#575000
1%
1D
02
1E
#580000
0%
0D
12
0E
#585000
1%
1D
02
1E
#590000
0%
0D
12
0E
#595000
1%
1D
02
1E
#600000
0%
0D
12
0E
#605000
1%
1D
02
1E
#610000
0%
0D
12
0E
#615000
1%
1D
02
1E
#620000
0%
0D
12
0E
#625000
1%
1D
02
1E
#630000
0%
0D
12
0E
#635000
1%
1D
02
1E
#640000
0%
0D
12
0E
#645000
1%
1D
02
1E
#650000
0%
0D
12
0E
#655000
1%
1D
02
1E
#660000
0%
0D
12
0E
#665000
1%
1D
02
1E
#670000
0%
0D
12
0E
#675000
1%
1D
02
1E
#680000
0%
0D
12
0E
#685000
1%
1D
02
1E
#690000
0%
0D
12
0E
#695000
1%
1D
02
1E
#700000
0%
0D
12
0E
#705000
1%
1D
02
1E
#710000
0%
0D
12
0E
#715000
1%
1D
02
1E
#720000
0%
0D
12
0E
#725000
1%
1D
02
1E
#730000
0%
0D
12
0E
#735000
1%
1D
02
1E
#740000
0%
0D
12
0E
#745000
1%
1D
02
1E
#750000
0%
0D
12
0E
#755000
1%
1D
02
1E
#760000
0%
0D
12
0E
#765000
1%
1D
02
1E
#770000
0%
0D
12
0E
#775000
1%
1D
02
1E
#780000
0%
0D
12
0E
#785000
1%
1D
02
1E
#790000
0%
0D
12
0E
#795000
1%
1D
02
1E
#800000
0%
0D
12
0E
#805000
1%
1D
02
1E
#810000
0%
0D
12
0E
#815000
1%
1D
02
1E
#820000
0%
0D
12
0E
#825000
1%
1D
02
1E
#830000
0%
0D
12
0E
#835000
1%
1D
02
1E
#840000
0%
0D
12
0E
#845000
1%
1D
02
1E
#850000
0%
0D
12
0E
#855000
1%
1D
02
1E
#860000
0%
0D
12
0E
#865000
1%
1D
02
1E
#870000
0%
0D
12
0E
#875000
1%
1D
02
1E
#880000
0%
0D
12
0E
#885000
1%
1D
02
1E
#890000
0%
0D
12
0E
#895000
1%
1D
02
1E
#900000
0%
0D
12
0E
#905000
1%
1D
02
1E
#910000
0%
0D
12
0E
#915000
1%
1D
02
1E
#920000
0%
0D
12
0E
#925000
1%
1D
02
1E
#930000
0%
0D
12
0E
#935000
1%
1D
02
1E
#940000
0%
0D
12
0E
#945000
1%
1D
02
1E
#950000
0%
0D
12
0E
#955000
1%
1D
02
1E
#960000
0%
0D
12
0E
#965000
1%
1D
02
1E
#970000
0%
0D
12
0E
#975000
1%
1D
02
1E
#980000
0%
0D
12
0E
#985000
1%
1D
02
1E
#990000
0%
0D
12
0E
#995000
1%
1D
02
1E
